Couldn't import dot_parser, loading of dot files will not be possible.
[32m[0502 22:38:44 @varmanip.py:164][0m [5m[31mWRN[0m Checkpoint path /home/Pearl/quantm/coDenoiseGAN/train_log/SharedDecoderWfly/model-250000.index is auto-corrected to /home/Pearl/quantm/coDenoiseGAN/train_log/SharedDecoderWfly/model-250000.
{'EMA/QueueInput/queue_size': [],
 'EMA/QueueInput/queue_size/biased': [],
 'EMA/QueueInput/queue_size/local_step': [],
 'EMA/loss_mae/mae_wfly1': [],
 'EMA/loss_mae/mae_wfly1/biased': [],
 'EMA/loss_mae/mae_wfly1/local_step': [],
 'EMA/self.d_loss': [],
 'EMA/self.d_loss/biased': [],
 'EMA/self.d_loss/local_step': [],
 'EMA/self.g_loss': [],
 'EMA/self.g_loss/biased': [],
 'EMA/self.g_loss/local_step': [],
 'discrim/conv1_1/W': [3, 3, 1, 24],
 'discrim/conv1_1/W/Adam': [3, 3, 1, 24],
 'discrim/conv1_1/W/Adam_1': [3, 3, 1, 24],
 'discrim/conv1_1/b': [24],
 'discrim/conv1_1/b/Adam': [24],
 'discrim/conv1_1/b/Adam_1': [24],
 'discrim/conv1_2/W': [3, 3, 24, 24],
 'discrim/conv1_2/W/Adam': [3, 3, 24, 24],
 'discrim/conv1_2/W/Adam_1': [3, 3, 24, 24],
 'discrim/conv1_2/b': [24],
 'discrim/conv1_2/b/Adam': [24],
 'discrim/conv1_2/b/Adam_1': [24],
 'discrim/conv2_1/W': [3, 3, 24, 48],
 'discrim/conv2_1/W/Adam': [3, 3, 24, 48],
 'discrim/conv2_1/W/Adam_1': [3, 3, 24, 48],
 'discrim/conv2_1/b': [48],
 'discrim/conv2_1/b/Adam': [48],
 'discrim/conv2_1/b/Adam_1': [48],
 'discrim/conv2_2/W': [3, 3, 48, 48],
 'discrim/conv2_2/W/Adam': [3, 3, 48, 48],
 'discrim/conv2_2/W/Adam_1': [3, 3, 48, 48],
 'discrim/conv2_2/b': [48],
 'discrim/conv2_2/b/Adam': [48],
 'discrim/conv2_2/b/Adam_1': [48],
 'discrim/conv3_1/W': [3, 3, 48, 96],
 'discrim/conv3_1/W/Adam': [3, 3, 48, 96],
 'discrim/conv3_1/W/Adam_1': [3, 3, 48, 96],
 'discrim/conv3_1/b': [96],
 'discrim/conv3_1/b/Adam': [96],
 'discrim/conv3_1/b/Adam_1': [96],
 'discrim/conv3_2/W': [3, 3, 96, 96],
 'discrim/conv3_2/W/Adam': [3, 3, 96, 96],
 'discrim/conv3_2/W/Adam_1': [3, 3, 96, 96],
 'discrim/conv3_2/b': [96],
 'discrim/conv3_2/b/Adam': [96],
 'discrim/conv3_2/b/Adam_1': [96],
 'discrim/conv3_3/W': [3, 3, 96, 96],
 'discrim/conv3_3/W/Adam': [3, 3, 96, 96],
 'discrim/conv3_3/W/Adam_1': [3, 3, 96, 96],
 'discrim/conv3_3/b': [96],
 'discrim/conv3_3/b/Adam': [96],
 'discrim/conv3_3/b/Adam_1': [96],
 'discrim/conv3_4/W': [3, 3, 96, 96],
 'discrim/conv3_4/W/Adam': [3, 3, 96, 96],
 'discrim/conv3_4/W/Adam_1': [3, 3, 96, 96],
 'discrim/conv3_4/b': [96],
 'discrim/conv3_4/b/Adam': [96],
 'discrim/conv3_4/b/Adam_1': [96],
 'discrim/conv4_1/W': [3, 3, 96, 192],
 'discrim/conv4_1/W/Adam': [3, 3, 96, 192],
 'discrim/conv4_1/W/Adam_1': [3, 3, 96, 192],
 'discrim/conv4_1/b': [192],
 'discrim/conv4_1/b/Adam': [192],
 'discrim/conv4_1/b/Adam_1': [192],
 'discrim/conv4_2/W': [3, 3, 192, 192],
 'discrim/conv4_2/W/Adam': [3, 3, 192, 192],
 'discrim/conv4_2/W/Adam_1': [3, 3, 192, 192],
 'discrim/conv4_2/b': [192],
 'discrim/conv4_2/b/Adam': [192],
 'discrim/conv4_2/b/Adam_1': [192],
 'discrim/conv4_3/W': [3, 3, 192, 192],
 'discrim/conv4_3/W/Adam': [3, 3, 192, 192],
 'discrim/conv4_3/W/Adam_1': [3, 3, 192, 192],
 'discrim/conv4_3/b': [192],
 'discrim/conv4_3/b/Adam': [192],
 'discrim/conv4_3/b/Adam_1': [192],
 'discrim/conv4_4/W': [3, 3, 192, 192],
 'discrim/conv4_4/W/Adam': [3, 3, 192, 192],
 'discrim/conv4_4/W/Adam_1': [3, 3, 192, 192],
 'discrim/conv4_4/b': [192],
 'discrim/conv4_4/b/Adam': [192],
 'discrim/conv4_4/b/Adam_1': [192],
 'discrim/conv5_1/W': [3, 3, 192, 192],
 'discrim/conv5_1/W/Adam': [3, 3, 192, 192],
 'discrim/conv5_1/W/Adam_1': [3, 3, 192, 192],
 'discrim/conv5_1/b': [192],
 'discrim/conv5_1/b/Adam': [192],
 'discrim/conv5_1/b/Adam_1': [192],
 'discrim/conv5_2/W': [3, 3, 192, 192],
 'discrim/conv5_2/W/Adam': [3, 3, 192, 192],
 'discrim/conv5_2/W/Adam_1': [3, 3, 192, 192],
 'discrim/conv5_2/b': [192],
 'discrim/conv5_2/b/Adam': [192],
 'discrim/conv5_2/b/Adam_1': [192],
 'discrim/conv5_3/W': [3, 3, 192, 192],
 'discrim/conv5_3/W/Adam': [3, 3, 192, 192],
 'discrim/conv5_3/W/Adam_1': [3, 3, 192, 192],
 'discrim/conv5_3/b': [192],
 'discrim/conv5_3/b/Adam': [192],
 'discrim/conv5_3/b/Adam_1': [192],
 'discrim/conv5_4/W': [3, 3, 192, 192],
 'discrim/conv5_4/W/Adam': [3, 3, 192, 192],
 'discrim/conv5_4/W/Adam_1': [3, 3, 192, 192],
 'discrim/conv5_4/b': [192],
 'discrim/conv5_4/b/Adam': [192],
 'discrim/conv5_4/b/Adam_1': [192],
 'discrim/enc2/conv1_1/W': [3, 3, 1, 24],
 'discrim/enc2/conv1_1/W/Adam': [3, 3, 1, 24],
 'discrim/enc2/conv1_1/W/Adam_1': [3, 3, 1, 24],
 'discrim/enc2/conv1_1/b': [24],
 'discrim/enc2/conv1_1/b/Adam': [24],
 'discrim/enc2/conv1_1/b/Adam_1': [24],
 'discrim/enc2/conv1_2/W': [3, 3, 24, 24],
 'discrim/enc2/conv1_2/W/Adam': [3, 3, 24, 24],
 'discrim/enc2/conv1_2/W/Adam_1': [3, 3, 24, 24],
 'discrim/enc2/conv1_2/b': [24],
 'discrim/enc2/conv1_2/b/Adam': [24],
 'discrim/enc2/conv1_2/b/Adam_1': [24],
 'discrim/enc2/conv2_1/W': [3, 3, 24, 48],
 'discrim/enc2/conv2_1/W/Adam': [3, 3, 24, 48],
 'discrim/enc2/conv2_1/W/Adam_1': [3, 3, 24, 48],
 'discrim/enc2/conv2_1/b': [48],
 'discrim/enc2/conv2_1/b/Adam': [48],
 'discrim/enc2/conv2_1/b/Adam_1': [48],
 'discrim/enc2/conv2_2/W': [3, 3, 48, 48],
 'discrim/enc2/conv2_2/W/Adam': [3, 3, 48, 48],
 'discrim/enc2/conv2_2/W/Adam_1': [3, 3, 48, 48],
 'discrim/enc2/conv2_2/b': [48],
 'discrim/enc2/conv2_2/b/Adam': [48],
 'discrim/enc2/conv2_2/b/Adam_1': [48],
 'discrim/enc2/conv3_1/W': [3, 3, 48, 96],
 'discrim/enc2/conv3_1/W/Adam': [3, 3, 48, 96],
 'discrim/enc2/conv3_1/W/Adam_1': [3, 3, 48, 96],
 'discrim/enc2/conv3_1/b': [96],
 'discrim/enc2/conv3_1/b/Adam': [96],
 'discrim/enc2/conv3_1/b/Adam_1': [96],
 'discrim/enc2/conv3_2/W': [3, 3, 96, 96],
 'discrim/enc2/conv3_2/W/Adam': [3, 3, 96, 96],
 'discrim/enc2/conv3_2/W/Adam_1': [3, 3, 96, 96],
 'discrim/enc2/conv3_2/b': [96],
 'discrim/enc2/conv3_2/b/Adam': [96],
 'discrim/enc2/conv3_2/b/Adam_1': [96],
 'discrim/enc2/conv3_3/W': [3, 3, 96, 96],
 'discrim/enc2/conv3_3/W/Adam': [3, 3, 96, 96],
 'discrim/enc2/conv3_3/W/Adam_1': [3, 3, 96, 96],
 'discrim/enc2/conv3_3/b': [96],
 'discrim/enc2/conv3_3/b/Adam': [96],
 'discrim/enc2/conv3_3/b/Adam_1': [96],
 'discrim/enc2/conv3_4/W': [3, 3, 96, 96],
 'discrim/enc2/conv3_4/W/Adam': [3, 3, 96, 96],
 'discrim/enc2/conv3_4/W/Adam_1': [3, 3, 96, 96],
 'discrim/enc2/conv3_4/b': [96],
 'discrim/enc2/conv3_4/b/Adam': [96],
 'discrim/enc2/conv3_4/b/Adam_1': [96],
 'discrim/enc2/conv4_1/W': [3, 3, 96, 192],
 'discrim/enc2/conv4_1/W/Adam': [3, 3, 96, 192],
 'discrim/enc2/conv4_1/W/Adam_1': [3, 3, 96, 192],
 'discrim/enc2/conv4_1/b': [192],
 'discrim/enc2/conv4_1/b/Adam': [192],
 'discrim/enc2/conv4_1/b/Adam_1': [192],
 'discrim/enc2/conv4_2/W': [3, 3, 192, 192],
 'discrim/enc2/conv4_2/W/Adam': [3, 3, 192, 192],
 'discrim/enc2/conv4_2/W/Adam_1': [3, 3, 192, 192],
 'discrim/enc2/conv4_2/b': [192],
 'discrim/enc2/conv4_2/b/Adam': [192],
 'discrim/enc2/conv4_2/b/Adam_1': [192],
 'discrim/enc2/conv4_3/W': [3, 3, 192, 192],
 'discrim/enc2/conv4_3/W/Adam': [3, 3, 192, 192],
 'discrim/enc2/conv4_3/W/Adam_1': [3, 3, 192, 192],
 'discrim/enc2/conv4_3/b': [192],
 'discrim/enc2/conv4_3/b/Adam': [192],
 'discrim/enc2/conv4_3/b/Adam_1': [192],
 'discrim/enc2/conv4_4/W': [3, 3, 192, 192],
 'discrim/enc2/conv4_4/W/Adam': [3, 3, 192, 192],
 'discrim/enc2/conv4_4/W/Adam_1': [3, 3, 192, 192],
 'discrim/enc2/conv4_4/b': [192],
 'discrim/enc2/conv4_4/b/Adam': [192],
 'discrim/enc2/conv4_4/b/Adam_1': [192],
 'discrim/enc2/conv5_1/W': [3, 3, 192, 192],
 'discrim/enc2/conv5_1/W/Adam': [3, 3, 192, 192],
 'discrim/enc2/conv5_1/W/Adam_1': [3, 3, 192, 192],
 'discrim/enc2/conv5_1/b': [192],
 'discrim/enc2/conv5_1/b/Adam': [192],
 'discrim/enc2/conv5_1/b/Adam_1': [192],
 'discrim/enc2/conv5_2/W': [3, 3, 192, 192],
 'discrim/enc2/conv5_2/W/Adam': [3, 3, 192, 192],
 'discrim/enc2/conv5_2/W/Adam_1': [3, 3, 192, 192],
 'discrim/enc2/conv5_2/b': [192],
 'discrim/enc2/conv5_2/b/Adam': [192],
 'discrim/enc2/conv5_2/b/Adam_1': [192],
 'discrim/enc2/conv5_3/W': [3, 3, 192, 192],
 'discrim/enc2/conv5_3/W/Adam': [3, 3, 192, 192],
 'discrim/enc2/conv5_3/W/Adam_1': [3, 3, 192, 192],
 'discrim/enc2/conv5_3/b': [192],
 'discrim/enc2/conv5_3/b/Adam': [192],
 'discrim/enc2/conv5_3/b/Adam_1': [192],
 'discrim/enc2/conv5_4/W': [3, 3, 192, 192],
 'discrim/enc2/conv5_4/W/Adam': [3, 3, 192, 192],
 'discrim/enc2/conv5_4/W/Adam_1': [3, 3, 192, 192],
 'discrim/enc2/conv5_4/b': [192],
 'discrim/enc2/conv5_4/b/Adam': [192],
 'discrim/enc2/conv5_4/b/Adam_1': [192],
 'gen/dec0/conv1_0/W': [3, 3, 24, 1],
 'gen/dec0/conv1_0/W/Adam': [3, 3, 24, 1],
 'gen/dec0/conv1_0/W/Adam_1': [3, 3, 24, 1],
 'gen/dec0/conv1_0/b': [1],
 'gen/dec0/conv1_0/b/Adam': [1],
 'gen/dec0/conv1_0/b/Adam_1': [1],
 'gen/dec0/conv1_1/W': [3, 3, 24, 24],
 'gen/dec0/conv1_1/W/Adam': [3, 3, 24, 24],
 'gen/dec0/conv1_1/W/Adam_1': [3, 3, 24, 24],
 'gen/dec0/conv1_1/b': [24],
 'gen/dec0/conv1_1/b/Adam': [24],
 'gen/dec0/conv1_1/b/Adam_1': [24],
 'gen/dec0/conv1_1/inorm/beta': [24],
 'gen/dec0/conv1_1/inorm/beta/Adam': [24],
 'gen/dec0/conv1_1/inorm/beta/Adam_1': [24],
 'gen/dec0/conv1_1/inorm/gamma': [24],
 'gen/dec0/conv1_1/inorm/gamma/Adam': [24],
 'gen/dec0/conv1_1/inorm/gamma/Adam_1': [24],
 'gen/dec0/conv1_2/W': [3, 3, 24, 24],
 'gen/dec0/conv1_2/W/Adam': [3, 3, 24, 24],
 'gen/dec0/conv1_2/W/Adam_1': [3, 3, 24, 24],
 'gen/dec0/conv1_2/b': [24],
 'gen/dec0/conv1_2/b/Adam': [24],
 'gen/dec0/conv1_2/b/Adam_1': [24],
 'gen/dec0/conv1_2/inorm/beta': [24],
 'gen/dec0/conv1_2/inorm/beta/Adam': [24],
 'gen/dec0/conv1_2/inorm/beta/Adam_1': [24],
 'gen/dec0/conv1_2/inorm/gamma': [24],
 'gen/dec0/conv1_2/inorm/gamma/Adam': [24],
 'gen/dec0/conv1_2/inorm/gamma/Adam_1': [24],
 'gen/dec0/conv2_1/W': [3, 3, 48, 48],
 'gen/dec0/conv2_1/W/Adam': [3, 3, 48, 48],
 'gen/dec0/conv2_1/W/Adam_1': [3, 3, 48, 48],
 'gen/dec0/conv2_1/b': [48],
 'gen/dec0/conv2_1/b/Adam': [48],
 'gen/dec0/conv2_1/b/Adam_1': [48],
 'gen/dec0/conv2_1/inorm/beta': [48],
 'gen/dec0/conv2_1/inorm/beta/Adam': [48],
 'gen/dec0/conv2_1/inorm/beta/Adam_1': [48],
 'gen/dec0/conv2_1/inorm/gamma': [48],
 'gen/dec0/conv2_1/inorm/gamma/Adam': [48],
 'gen/dec0/conv2_1/inorm/gamma/Adam_1': [48],
 'gen/dec0/conv2_2/W': [3, 3, 48, 48],
 'gen/dec0/conv2_2/W/Adam': [3, 3, 48, 48],
 'gen/dec0/conv2_2/W/Adam_1': [3, 3, 48, 48],
 'gen/dec0/conv2_2/b': [48],
 'gen/dec0/conv2_2/b/Adam': [48],
 'gen/dec0/conv2_2/b/Adam_1': [48],
 'gen/dec0/conv2_2/inorm/beta': [48],
 'gen/dec0/conv2_2/inorm/beta/Adam': [48],
 'gen/dec0/conv2_2/inorm/beta/Adam_1': [48],
 'gen/dec0/conv2_2/inorm/gamma': [48],
 'gen/dec0/conv2_2/inorm/gamma/Adam': [48],
 'gen/dec0/conv2_2/inorm/gamma/Adam_1': [48],
 'gen/dec0/conv3_1/W': [3, 3, 96, 96],
 'gen/dec0/conv3_1/W/Adam': [3, 3, 96, 96],
 'gen/dec0/conv3_1/W/Adam_1': [3, 3, 96, 96],
 'gen/dec0/conv3_1/b': [96],
 'gen/dec0/conv3_1/b/Adam': [96],
 'gen/dec0/conv3_1/b/Adam_1': [96],
 'gen/dec0/conv3_1/inorm/beta': [96],
 'gen/dec0/conv3_1/inorm/beta/Adam': [96],
 'gen/dec0/conv3_1/inorm/beta/Adam_1': [96],
 'gen/dec0/conv3_1/inorm/gamma': [96],
 'gen/dec0/conv3_1/inorm/gamma/Adam': [96],
 'gen/dec0/conv3_1/inorm/gamma/Adam_1': [96],
 'gen/dec0/conv3_2/W': [3, 3, 96, 96],
 'gen/dec0/conv3_2/W/Adam': [3, 3, 96, 96],
 'gen/dec0/conv3_2/W/Adam_1': [3, 3, 96, 96],
 'gen/dec0/conv3_2/b': [96],
 'gen/dec0/conv3_2/b/Adam': [96],
 'gen/dec0/conv3_2/b/Adam_1': [96],
 'gen/dec0/conv3_2/inorm/beta': [96],
 'gen/dec0/conv3_2/inorm/beta/Adam': [96],
 'gen/dec0/conv3_2/inorm/beta/Adam_1': [96],
 'gen/dec0/conv3_2/inorm/gamma': [96],
 'gen/dec0/conv3_2/inorm/gamma/Adam': [96],
 'gen/dec0/conv3_2/inorm/gamma/Adam_1': [96],
 'gen/dec0/conv3_3/W': [3, 3, 96, 96],
 'gen/dec0/conv3_3/W/Adam': [3, 3, 96, 96],
 'gen/dec0/conv3_3/W/Adam_1': [3, 3, 96, 96],
 'gen/dec0/conv3_3/b': [96],
 'gen/dec0/conv3_3/b/Adam': [96],
 'gen/dec0/conv3_3/b/Adam_1': [96],
 'gen/dec0/conv3_3/inorm/beta': [96],
 'gen/dec0/conv3_3/inorm/beta/Adam': [96],
 'gen/dec0/conv3_3/inorm/beta/Adam_1': [96],
 'gen/dec0/conv3_3/inorm/gamma': [96],
 'gen/dec0/conv3_3/inorm/gamma/Adam': [96],
 'gen/dec0/conv3_3/inorm/gamma/Adam_1': [96],
 'gen/dec0/conv3_4/W': [3, 3, 96, 96],
 'gen/dec0/conv3_4/W/Adam': [3, 3, 96, 96],
 'gen/dec0/conv3_4/W/Adam_1': [3, 3, 96, 96],
 'gen/dec0/conv3_4/b': [96],
 'gen/dec0/conv3_4/b/Adam': [96],
 'gen/dec0/conv3_4/b/Adam_1': [96],
 'gen/dec0/conv3_4/inorm/beta': [96],
 'gen/dec0/conv3_4/inorm/beta/Adam': [96],
 'gen/dec0/conv3_4/inorm/beta/Adam_1': [96],
 'gen/dec0/conv3_4/inorm/gamma': [96],
 'gen/dec0/conv3_4/inorm/gamma/Adam': [96],
 'gen/dec0/conv3_4/inorm/gamma/Adam_1': [96],
 'gen/dec0/conv4_1/W': [3, 3, 192, 192],
 'gen/dec0/conv4_1/W/Adam': [3, 3, 192, 192],
 'gen/dec0/conv4_1/W/Adam_1': [3, 3, 192, 192],
 'gen/dec0/conv4_1/b': [192],
 'gen/dec0/conv4_1/b/Adam': [192],
 'gen/dec0/conv4_1/b/Adam_1': [192],
 'gen/dec0/conv4_1/inorm/beta': [192],
 'gen/dec0/conv4_1/inorm/beta/Adam': [192],
 'gen/dec0/conv4_1/inorm/beta/Adam_1': [192],
 'gen/dec0/conv4_1/inorm/gamma': [192],
 'gen/dec0/conv4_1/inorm/gamma/Adam': [192],
 'gen/dec0/conv4_1/inorm/gamma/Adam_1': [192],
 'gen/dec0/conv4_2/W': [3, 3, 192, 192],
 'gen/dec0/conv4_2/W/Adam': [3, 3, 192, 192],
 'gen/dec0/conv4_2/W/Adam_1': [3, 3, 192, 192],
 'gen/dec0/conv4_2/b': [192],
 'gen/dec0/conv4_2/b/Adam': [192],
 'gen/dec0/conv4_2/b/Adam_1': [192],
 'gen/dec0/conv4_2/inorm/beta': [192],
 'gen/dec0/conv4_2/inorm/beta/Adam': [192],
 'gen/dec0/conv4_2/inorm/beta/Adam_1': [192],
 'gen/dec0/conv4_2/inorm/gamma': [192],
 'gen/dec0/conv4_2/inorm/gamma/Adam': [192],
 'gen/dec0/conv4_2/inorm/gamma/Adam_1': [192],
 'gen/dec0/conv4_3/W': [3, 3, 192, 192],
 'gen/dec0/conv4_3/W/Adam': [3, 3, 192, 192],
 'gen/dec0/conv4_3/W/Adam_1': [3, 3, 192, 192],
 'gen/dec0/conv4_3/b': [192],
 'gen/dec0/conv4_3/b/Adam': [192],
 'gen/dec0/conv4_3/b/Adam_1': [192],
 'gen/dec0/conv4_3/inorm/beta': [192],
 'gen/dec0/conv4_3/inorm/beta/Adam': [192],
 'gen/dec0/conv4_3/inorm/beta/Adam_1': [192],
 'gen/dec0/conv4_3/inorm/gamma': [192],
 'gen/dec0/conv4_3/inorm/gamma/Adam': [192],
 'gen/dec0/conv4_3/inorm/gamma/Adam_1': [192],
 'gen/dec0/conv4_4/W': [3, 3, 192, 192],
 'gen/dec0/conv4_4/W/Adam': [3, 3, 192, 192],
 'gen/dec0/conv4_4/W/Adam_1': [3, 3, 192, 192],
 'gen/dec0/conv4_4/b': [192],
 'gen/dec0/conv4_4/b/Adam': [192],
 'gen/dec0/conv4_4/b/Adam_1': [192],
 'gen/dec0/conv4_4/inorm/beta': [192],
 'gen/dec0/conv4_4/inorm/beta/Adam': [192],
 'gen/dec0/conv4_4/inorm/beta/Adam_1': [192],
 'gen/dec0/conv4_4/inorm/gamma': [192],
 'gen/dec0/conv4_4/inorm/gamma/Adam': [192],
 'gen/dec0/conv4_4/inorm/gamma/Adam_1': [192],
 'gen/dec0/conv5_1/W': [3, 3, 192, 192],
 'gen/dec0/conv5_1/W/Adam': [3, 3, 192, 192],
 'gen/dec0/conv5_1/W/Adam_1': [3, 3, 192, 192],
 'gen/dec0/conv5_1/b': [192],
 'gen/dec0/conv5_1/b/Adam': [192],
 'gen/dec0/conv5_1/b/Adam_1': [192],
 'gen/dec0/conv5_1/inorm/beta': [192],
 'gen/dec0/conv5_1/inorm/beta/Adam': [192],
 'gen/dec0/conv5_1/inorm/beta/Adam_1': [192],
 'gen/dec0/conv5_1/inorm/gamma': [192],
 'gen/dec0/conv5_1/inorm/gamma/Adam': [192],
 'gen/dec0/conv5_1/inorm/gamma/Adam_1': [192],
 'gen/dec0/conv5_2/W': [3, 3, 192, 192],
 'gen/dec0/conv5_2/W/Adam': [3, 3, 192, 192],
 'gen/dec0/conv5_2/W/Adam_1': [3, 3, 192, 192],
 'gen/dec0/conv5_2/b': [192],
 'gen/dec0/conv5_2/b/Adam': [192],
 'gen/dec0/conv5_2/b/Adam_1': [192],
 'gen/dec0/conv5_2/inorm/beta': [192],
 'gen/dec0/conv5_2/inorm/beta/Adam': [192],
 'gen/dec0/conv5_2/inorm/beta/Adam_1': [192],
 'gen/dec0/conv5_2/inorm/gamma': [192],
 'gen/dec0/conv5_2/inorm/gamma/Adam': [192],
 'gen/dec0/conv5_2/inorm/gamma/Adam_1': [192],
 'gen/dec0/conv5_3/W': [3, 3, 192, 192],
 'gen/dec0/conv5_3/W/Adam': [3, 3, 192, 192],
 'gen/dec0/conv5_3/W/Adam_1': [3, 3, 192, 192],
 'gen/dec0/conv5_3/b': [192],
 'gen/dec0/conv5_3/b/Adam': [192],
 'gen/dec0/conv5_3/b/Adam_1': [192],
 'gen/dec0/conv5_3/inorm/beta': [192],
 'gen/dec0/conv5_3/inorm/beta/Adam': [192],
 'gen/dec0/conv5_3/inorm/beta/Adam_1': [192],
 'gen/dec0/conv5_3/inorm/gamma': [192],
 'gen/dec0/conv5_3/inorm/gamma/Adam': [192],
 'gen/dec0/conv5_3/inorm/gamma/Adam_1': [192],
 'gen/dec0/conv5_4/W': [3, 3, 192, 192],
 'gen/dec0/conv5_4/W/Adam': [3, 3, 192, 192],
 'gen/dec0/conv5_4/W/Adam_1': [3, 3, 192, 192],
 'gen/dec0/conv5_4/b': [192],
 'gen/dec0/conv5_4/b/Adam': [192],
 'gen/dec0/conv5_4/b/Adam_1': [192],
 'gen/dec0/conv5_4/inorm/beta': [192],
 'gen/dec0/conv5_4/inorm/beta/Adam': [192],
 'gen/dec0/conv5_4/inorm/beta/Adam_1': [192],
 'gen/dec0/conv5_4/inorm/gamma': [192],
 'gen/dec0/conv5_4/inorm/gamma/Adam': [192],
 'gen/dec0/conv5_4/inorm/gamma/Adam_1': [192],
 'gen/dec0/pool1/conv0/W': [3, 3, 48, 96],
 'gen/dec0/pool1/conv0/W/Adam': [3, 3, 48, 96],
 'gen/dec0/pool1/conv0/W/Adam_1': [3, 3, 48, 96],
 'gen/dec0/pool1/conv0/b': [96],
 'gen/dec0/pool1/conv0/b/Adam': [96],
 'gen/dec0/pool1/conv0/b/Adam_1': [96],
 'gen/dec0/pool1/conv0/inorm/beta': [96],
 'gen/dec0/pool1/conv0/inorm/beta/Adam': [96],
 'gen/dec0/pool1/conv0/inorm/beta/Adam_1': [96],
 'gen/dec0/pool1/conv0/inorm/gamma': [96],
 'gen/dec0/pool1/conv0/inorm/gamma/Adam': [96],
 'gen/dec0/pool1/conv0/inorm/gamma/Adam_1': [96],
 'gen/dec0/pool2/conv0/W': [3, 3, 96, 192],
 'gen/dec0/pool2/conv0/W/Adam': [3, 3, 96, 192],
 'gen/dec0/pool2/conv0/W/Adam_1': [3, 3, 96, 192],
 'gen/dec0/pool2/conv0/b': [192],
 'gen/dec0/pool2/conv0/b/Adam': [192],
 'gen/dec0/pool2/conv0/b/Adam_1': [192],
 'gen/dec0/pool2/conv0/inorm/beta': [192],
 'gen/dec0/pool2/conv0/inorm/beta/Adam': [192],
 'gen/dec0/pool2/conv0/inorm/beta/Adam_1': [192],
 'gen/dec0/pool2/conv0/inorm/gamma': [192],
 'gen/dec0/pool2/conv0/inorm/gamma/Adam': [192],
 'gen/dec0/pool2/conv0/inorm/gamma/Adam_1': [192],
 'gen/dec0/pool3/conv0/W': [3, 3, 192, 384],
 'gen/dec0/pool3/conv0/W/Adam': [3, 3, 192, 384],
 'gen/dec0/pool3/conv0/W/Adam_1': [3, 3, 192, 384],
 'gen/dec0/pool3/conv0/b': [384],
 'gen/dec0/pool3/conv0/b/Adam': [384],
 'gen/dec0/pool3/conv0/b/Adam_1': [384],
 'gen/dec0/pool3/conv0/inorm/beta': [384],
 'gen/dec0/pool3/conv0/inorm/beta/Adam': [384],
 'gen/dec0/pool3/conv0/inorm/beta/Adam_1': [384],
 'gen/dec0/pool3/conv0/inorm/gamma': [384],
 'gen/dec0/pool3/conv0/inorm/gamma/Adam': [384],
 'gen/dec0/pool3/conv0/inorm/gamma/Adam_1': [384],
 'gen/dec0/pool4/conv0/W': [3, 3, 192, 768],
 'gen/dec0/pool4/conv0/W/Adam': [3, 3, 192, 768],
 'gen/dec0/pool4/conv0/W/Adam_1': [3, 3, 192, 768],
 'gen/dec0/pool4/conv0/b': [768],
 'gen/dec0/pool4/conv0/b/Adam': [768],
 'gen/dec0/pool4/conv0/b/Adam_1': [768],
 'gen/dec0/pool4/conv0/inorm/beta': [768],
 'gen/dec0/pool4/conv0/inorm/beta/Adam': [768],
 'gen/dec0/pool4/conv0/inorm/beta/Adam_1': [768],
 'gen/dec0/pool4/conv0/inorm/gamma': [768],
 'gen/dec0/pool4/conv0/inorm/gamma/Adam': [768],
 'gen/dec0/pool4/conv0/inorm/gamma/Adam_1': [768],
 'gen/dec0/pool5/conv0/W': [3, 3, 192, 768],
 'gen/dec0/pool5/conv0/W/Adam': [3, 3, 192, 768],
 'gen/dec0/pool5/conv0/W/Adam_1': [3, 3, 192, 768],
 'gen/dec0/pool5/conv0/b': [768],
 'gen/dec0/pool5/conv0/b/Adam': [768],
 'gen/dec0/pool5/conv0/b/Adam_1': [768],
 'gen/dec0/pool5/conv0/inorm/beta': [768],
 'gen/dec0/pool5/conv0/inorm/beta/Adam': [768],
 'gen/dec0/pool5/conv0/inorm/beta/Adam_1': [768],
 'gen/dec0/pool5/conv0/inorm/gamma': [768],
 'gen/dec0/pool5/conv0/inorm/gamma/Adam': [768],
 'gen/dec0/pool5/conv0/inorm/gamma/Adam_1': [768],
 'gen/enc1/conv1_1/W': [3, 3, 1, 24],
 'gen/enc1/conv1_1/W/Adam': [3, 3, 1, 24],
 'gen/enc1/conv1_1/W/Adam_1': [3, 3, 1, 24],
 'gen/enc1/conv1_1/b': [24],
 'gen/enc1/conv1_1/b/Adam': [24],
 'gen/enc1/conv1_1/b/Adam_1': [24],
 'gen/enc1/conv1_2/W': [3, 3, 24, 24],
 'gen/enc1/conv1_2/W/Adam': [3, 3, 24, 24],
 'gen/enc1/conv1_2/W/Adam_1': [3, 3, 24, 24],
 'gen/enc1/conv1_2/b': [24],
 'gen/enc1/conv1_2/b/Adam': [24],
 'gen/enc1/conv1_2/b/Adam_1': [24],
 'gen/enc1/conv2_1/W': [3, 3, 24, 48],
 'gen/enc1/conv2_1/W/Adam': [3, 3, 24, 48],
 'gen/enc1/conv2_1/W/Adam_1': [3, 3, 24, 48],
 'gen/enc1/conv2_1/b': [48],
 'gen/enc1/conv2_1/b/Adam': [48],
 'gen/enc1/conv2_1/b/Adam_1': [48],
 'gen/enc1/conv2_2/W': [3, 3, 48, 48],
 'gen/enc1/conv2_2/W/Adam': [3, 3, 48, 48],
 'gen/enc1/conv2_2/W/Adam_1': [3, 3, 48, 48],
 'gen/enc1/conv2_2/b': [48],
 'gen/enc1/conv2_2/b/Adam': [48],
 'gen/enc1/conv2_2/b/Adam_1': [48],
 'gen/enc1/conv3_1/W': [3, 3, 48, 96],
 'gen/enc1/conv3_1/W/Adam': [3, 3, 48, 96],
 'gen/enc1/conv3_1/W/Adam_1': [3, 3, 48, 96],
 'gen/enc1/conv3_1/b': [96],
 'gen/enc1/conv3_1/b/Adam': [96],
 'gen/enc1/conv3_1/b/Adam_1': [96],
 'gen/enc1/conv3_2/W': [3, 3, 96, 96],
 'gen/enc1/conv3_2/W/Adam': [3, 3, 96, 96],
 'gen/enc1/conv3_2/W/Adam_1': [3, 3, 96, 96],
 'gen/enc1/conv3_2/b': [96],
 'gen/enc1/conv3_2/b/Adam': [96],
 'gen/enc1/conv3_2/b/Adam_1': [96],
 'gen/enc1/conv3_3/W': [3, 3, 96, 96],
 'gen/enc1/conv3_3/W/Adam': [3, 3, 96, 96],
 'gen/enc1/conv3_3/W/Adam_1': [3, 3, 96, 96],
 'gen/enc1/conv3_3/b': [96],
 'gen/enc1/conv3_3/b/Adam': [96],
 'gen/enc1/conv3_3/b/Adam_1': [96],
 'gen/enc1/conv3_4/W': [3, 3, 96, 96],
 'gen/enc1/conv3_4/W/Adam': [3, 3, 96, 96],
 'gen/enc1/conv3_4/W/Adam_1': [3, 3, 96, 96],
 'gen/enc1/conv3_4/b': [96],
 'gen/enc1/conv3_4/b/Adam': [96],
 'gen/enc1/conv3_4/b/Adam_1': [96],
 'gen/enc1/conv4_1/W': [3, 3, 96, 192],
 'gen/enc1/conv4_1/W/Adam': [3, 3, 96, 192],
 'gen/enc1/conv4_1/W/Adam_1': [3, 3, 96, 192],
 'gen/enc1/conv4_1/b': [192],
 'gen/enc1/conv4_1/b/Adam': [192],
 'gen/enc1/conv4_1/b/Adam_1': [192],
 'gen/enc1/conv4_2/W': [3, 3, 192, 192],
 'gen/enc1/conv4_2/W/Adam': [3, 3, 192, 192],
 'gen/enc1/conv4_2/W/Adam_1': [3, 3, 192, 192],
 'gen/enc1/conv4_2/b': [192],
 'gen/enc1/conv4_2/b/Adam': [192],
 'gen/enc1/conv4_2/b/Adam_1': [192],
 'gen/enc1/conv4_3/W': [3, 3, 192, 192],
 'gen/enc1/conv4_3/W/Adam': [3, 3, 192, 192],
 'gen/enc1/conv4_3/W/Adam_1': [3, 3, 192, 192],
 'gen/enc1/conv4_3/b': [192],
 'gen/enc1/conv4_3/b/Adam': [192],
 'gen/enc1/conv4_3/b/Adam_1': [192],
 'gen/enc1/conv4_4/W': [3, 3, 192, 192],
 'gen/enc1/conv4_4/W/Adam': [3, 3, 192, 192],
 'gen/enc1/conv4_4/W/Adam_1': [3, 3, 192, 192],
 'gen/enc1/conv4_4/b': [192],
 'gen/enc1/conv4_4/b/Adam': [192],
 'gen/enc1/conv4_4/b/Adam_1': [192],
 'gen/enc1/conv5_1/W': [3, 3, 192, 192],
 'gen/enc1/conv5_1/W/Adam': [3, 3, 192, 192],
 'gen/enc1/conv5_1/W/Adam_1': [3, 3, 192, 192],
 'gen/enc1/conv5_1/b': [192],
 'gen/enc1/conv5_1/b/Adam': [192],
 'gen/enc1/conv5_1/b/Adam_1': [192],
 'gen/enc1/conv5_2/W': [3, 3, 192, 192],
 'gen/enc1/conv5_2/W/Adam': [3, 3, 192, 192],
 'gen/enc1/conv5_2/W/Adam_1': [3, 3, 192, 192],
 'gen/enc1/conv5_2/b': [192],
 'gen/enc1/conv5_2/b/Adam': [192],
 'gen/enc1/conv5_2/b/Adam_1': [192],
 'gen/enc1/conv5_3/W': [3, 3, 192, 192],
 'gen/enc1/conv5_3/W/Adam': [3, 3, 192, 192],
 'gen/enc1/conv5_3/W/Adam_1': [3, 3, 192, 192],
 'gen/enc1/conv5_3/b': [192],
 'gen/enc1/conv5_3/b/Adam': [192],
 'gen/enc1/conv5_3/b/Adam_1': [192],
 'gen/enc1/conv5_4/W': [3, 3, 192, 192],
 'gen/enc1/conv5_4/W/Adam': [3, 3, 192, 192],
 'gen/enc1/conv5_4/W/Adam_1': [3, 3, 192, 192],
 'gen/enc1/conv5_4/b': [192],
 'gen/enc1/conv5_4/b/Adam': [192],
 'gen/enc1/conv5_4/b/Adam_1': [192],
 'global_step': [],
 'learning_rate': [],
 'optimize/beta1_power': [],
 'optimize/beta2_power': []}
